{
	"time":10,
	"en": {
		"purpose":"To provide an opportunity for you to discuss accessibility concers with your colleagues.",
		"layout":"simple",
		"questions": {
			"1":{
					"type":"sub", "lead":"Introduce yourselves :", "listype":"ul", "questions": {
						"2":{"type":"input", "q":"Who you are, where you work and what you do?"},
						"3":{"type":"input", "q":"Why are you interested in accessibility?"}
					}
				},
			"4":{"type":"textarea", "q":"List of some accessibility challenges you are presently facing at work?"},
			"5":{"type":"textarea", "q":"How much do you know about the Web Content Accessibility Guidelines (WCAG) 2.0?"},
			"6":{"type":"textarea", "q":"Do you have any specific questions about WCAG 2.0?"}
		}
	},
	"fr": {
		"purpose":"Vous donnez l’occasion de discuter de vos préoccupations en matière d’accessibilité avec vos collègues.",
		"layout":"simple",
		"questions": {
			"1":{
					"type":"sub", "lead":"Présentez-vous :", "listype":"ul", "questions": {
						"2":{"type":"input", "q":"Qui êtes-vous, où travaillez-vous et que faites-vous?"},
						"3":{"type":"input", "q":"Pourquoi l’accessibilité vous intéresse-t-elle?"}
					}
				},
			"4":{"type":"textarea", "q":"Énumérez quelques défis en matière d’accessibilité du Web auxquels vous faites face actuellement au travail."},
			"5":{"type":"textarea", "q":"Avez-vous déjà entendu parler des Règles pour l’accessibilité des contenus Web 2.0 (WCAG 2.0)?"},
			"6":{"type":"textarea", "q":"Avez-vous des questions ou commentaires concernant les WCAG 2.0?"}
		}
	}
}